<?xml version="1.0" standalone="no"?>
<!DOCTYPE svg PUBLIC "-//W3C//DTD SVG 1.1//EN" "http://www.w3.org/Graphics/SVG/1.1/DTD/svg11.dtd">
<svg xmlns="http://www.w3.org/2000/svg">
<metadata>Copyright (C) 2015 by original authors @ fontello.com</metadata>
<defs>
<font id="quote" horiz-adv-x="1000" >
<font-face font-family="quote" font-weight="400" font-stretch="normal" units-per-em="1000" ascent="850" descent="-150" />
<missing-glyph horiz-adv-x="1000" />
<glyph glyph-name="home" unicode="&#xe800;" d="m786 296v-267q0-15-11-26t-25-10h-214v214h-143v-214h-214q-15 0-25 10t-11 26v267q0 1 0 2t0 2l321 264 321-264q1-1 1-4z m124 39l-34-41q-5-5-12-6h-2q-7 0-12 3l-386 322-386-322q-7-4-13-4-7 2-12 7l-35 41q-4 5-3 13t6 12l401 334q18 15 42 15t43-15l136-114v109q0 8 5 13t13 5h107q8 0 13-5t5-13v-227l122-102q5-5 6-12t-4-13z" horiz-adv-x="928.6" />
<glyph glyph-name="mail-alt" unicode="&#xe801;" d="m1000 454v-443q0-37-26-63t-63-27h-822q-36 0-63 27t-26 63v443q25-28 56-49 202-137 278-192 32-24 51-37t53-27 61-13h2q28 0 61 13t53 27 51 37q95 68 278 192 32 22 56 49z m0 164q0-44-27-84t-68-69q-210-146-262-181-5-4-23-17t-30-22-29-18-33-15-27-5h-2q-12 0-27 5t-33 15-29 18-30 22-23 17q-51 35-147 101t-114 80q-35 23-65 64t-31 77q0 43 23 72t66 29h822q36 0 62-26t27-63z" horiz-adv-x="1000" />
<glyph glyph-name="search" unicode="&#xe802;" d="m643 386q0 103-74 176t-176 74-177-74-73-176 73-177 177-73 176 73 74 177z m286-465q0-29-22-50t-50-21q-30 0-50 21l-191 191q-100-69-223-69-80 0-153 31t-125 84-84 125-31 153 31 152 84 126 125 84 153 31 152-31 126-84 84-126 31-152q0-123-69-223l191-191q21-21 21-51z" horiz-adv-x="928.6" />
<glyph glyph-name="th-large" unicode="&#xe803;" d="m429 279v-215q0-29-22-50t-50-21h-286q-29 0-50 21t-21 50v215q0 29 21 50t50 21h286q29 0 50-21t22-50z m0 428v-214q0-29-22-50t-50-22h-286q-29 0-50 22t-21 50v214q0 29 21 50t50 22h286q29 0 50-22t22-50z m500-428v-215q0-29-22-50t-50-21h-286q-29 0-50 21t-21 50v215q0 29 21 50t50 21h286q29 0 50-21t22-50z m0 428v-214q0-29-22-50t-50-22h-286q-29 0-50 22t-21 50v214q0 29 21 50t50 22h286q29 0 50-22t22-50z" horiz-adv-x="928.6" />
<glyph glyph-name="menu" unicode="&#xe804;" d="m857 100v-71q0-15-10-25t-26-11h-785q-15 0-25 11t-11 25v71q0 15 11 25t25 11h785q15 0 26-11t10-25z m0 286v-72q0-14-10-25t-26-10h-785q-15 0-25 10t-11 25v72q0 14 11 25t25 10h785q15 0 26-10t10-25z m0 285v-71q0-15-10-25t-26-11h-785q-15 0-25 11t-11 25v71q0 15 11 26t25 10h785q15 0 26-10t10-26z" horiz-adv-x="857.1" />
<glyph glyph-name="phone" unicode="&#xe805;" d="m786 158q0-15-6-39t-12-38q-11-28-68-60-52-28-103-28-16 0-30 2t-32 7-26 8-31 11-28 10q-54 20-97 47-72 44-148 120t-120 148q-27 43-46 97-2 5-10 28t-12 31-8 26-7 32-2 29q0 52 29 104 31 56 59 68 14 6 38 12t39 6q8 0 12-2 10-3 30-43 6-10 16-30t20-35 17-30q2-2 10-14t12-20 4-16q0-11-16-28t-35-30-34-30-16-25q0-5 3-13t4-11 8-14 7-10q42-77 97-132t131-97q1 0 10-6t14-8 11-5 13-2q10 0 25 15t30 35 31 35 28 16q7 0 15-4t20-12 14-10q14-8 30-17t35-20 31-17q39-19 42-29 2-4 2-12z" horiz-adv-x="785.7" />
<glyph glyph-name="cog-alt" unicode="&#xe806;" d="m500 350q0 59-42 101t-101 42-101-42-42-101 42-101 101-42 101 42 42 101z m429-286q0 29-22 51t-50 21-50-21-21-51q0-29 21-50t50-21 51 21 21 50z m0 572q0 29-22 50t-50 21-50-21-21-50q0-30 21-51t50-21 51 21 21 51z m-215-235v-103q0-6-4-11t-9-6l-86-14q-6-19-18-42 19-27 50-64 4-6 4-11 0-7-4-11-13-17-46-50t-44-33q-6 0-11 4l-64 50q-21-11-43-17-6-60-13-87-4-13-17-13h-104q-6 0-11 4t-5 10l-13 85q-19 6-42 18l-66-50q-4-4-11-4-6 0-12 4-80 75-80 90 0 5 4 10 5 8 23 30t26 34q-13 24-20 46l-85 13q-5 1-9 5t-4 11v103q0 6 4 11t9 6l86 14q7 19 18 42-19 27-50 64-4 6-4 11 0 7 4 11 12 17 46 50t44 33q6 0 12-4l64-50q19 10 43 18 6 60 13 86 3 13 16 13h104q6 0 11-4t6-10l13-85q19-6 41-17l66 49q5 4 11 4 7 0 12-4 81-75 81-90 0-5-4-10-7-9-24-30t-25-34q13-27 19-46l85-12q5-2 9-6t4-11z m357-298v-78q0-9-83-17-6-15-16-29 28-63 28-77 0-2-2-4-68-40-69-40-5 0-26 27t-29 37q-11-1-17-1t-17 1q-7-11-29-37t-25-27q-1 0-69 40-3 2-3 4 0 14 29 77-10 14-17 29-83 8-83 17v78q0 9 83 18 7 16 17 29-29 63-29 77 0 2 3 4 2 1 19 11t33 19 17 9q4 0 25-26t29-38q12 1 17 1t17-1q28 40 51 63l4 1q2 0 69-39 2-2 2-4 0-14-28-77 9-13 16-29 83-9 83-18z m0 572v-78q0-9-83-18-6-15-16-29 28-63 28-77 0-2-2-4-68-39-69-39-5 0-26 26t-29 38q-11-1-17-1t-17 1q-7-12-29-38t-25-26q-1 0-69 39-3 2-3 4 0 14 29 77-10 14-17 29-83 9-83 18v78q0 9 83 17 7 16 17 29-29 63-29 77 0 2 3 4 2 1 19 11t33 19 17 9q4 0 25-26t29-38q12 2 17 2t17-2q28 40 51 63l4 1q2 0 69-39 2-2 2-4 0-14-28-77 9-13 16-29 83-8 83-17z" horiz-adv-x="1071.4" />
<glyph glyph-name="ok" unicode="&#xe807;" d="m932 534q0-22-15-38l-404-404-76-76q-16-15-38-15t-38 15l-76 76-202 202q-15 16-15 38t15 38l76 76q16 16 38 16t38-16l164-165 366 367q16 16 38 16t38-16l76-76q15-16 15-38z" horiz-adv-x="1000" />
<glyph glyph-name="cancel" unicode="&#xe808;" d="m724 112q0-22-15-38l-76-76q-16-15-38-15t-38 15l-164 165-164-165q-16-15-38-15t-38 15l-76 76q-16 16-16 38t16 38l164 164-164 164q-16 16-16 38t16 38l76 76q16 16 38 16t38-16l164-164 164 164q16 16 38 16t38-16l76-76q15-15 15-38t-15-38l-164-164 164-164q15-15 15-38z" horiz-adv-x="785.7" />
<glyph glyph-name="left-open" unicode="&#xe809;" d="m653 682l-296-296 296-297q11-10 11-25t-11-25l-92-93q-11-10-25-10t-25 10l-414 415q-11 10-11 25t11 25l414 414q10 10 25 10t25-10l92-93q11-10 11-25t-11-25z" horiz-adv-x="714.3" />
<glyph glyph-name="right-open" unicode="&#xe80a;" d="m618 361l-414-415q-11-10-25-10t-26 10l-92 93q-11 11-11 25t11 25l296 297-296 296q-11 11-11 25t11 25l92 93q11 10 26 10t25-10l414-414q10-11 10-25t-10-25z" horiz-adv-x="714.3" />
<glyph glyph-name="up-open" unicode="&#xe80b;" d="m939 107l-92-92q-11-10-26-10t-25 10l-296 297-296-297q-11-10-25-10t-26 10l-92 92q-11 11-11 26t11 25l414 414q11 10 25 10t25-10l414-414q11-11 11-25t-11-26z" horiz-adv-x="1000" />
<glyph glyph-name="down-open" unicode="&#xe80c;" d="m939 399l-414-413q-10-11-25-11t-25 11l-414 413q-11 11-11 26t11 25l92 92q11 11 26 11t25-11l296-296 296 296q11 11 25 11t26-11l92-92q11-11 11-25t-11-26z" horiz-adv-x="1000" />
<glyph glyph-name="angle-circled-left" unicode="&#xe80d;" d="m507 72l57 56q11 11 11 26t-11 25l-171 171 171 171q11 11 11 25t-11 25l-57 57q-10 11-25 11t-25-11l-253-253q-11-11-11-25t11-25l253-254q11-10 25-10t25 10z m350 278q0-117-57-215t-156-156-215-58-216 58-155 156-58 215 58 215 155 156 216 58 215-58 156-156 57-215z" horiz-adv-x="857.1" />
<glyph glyph-name="angle-circled-right" unicode="&#xe80e;" d="m400 72l253 253q11 11 11 25t-11 25l-253 253q-10 11-25 11t-25-11l-57-56q-11-11-11-26t11-25l171-171-171-171q-11-11-11-25t11-26l57-57q11-10 25-10t25 10z m457 278q0-117-57-215t-156-156-215-58-216 58-155 156-58 215 58 215 155 156 216 58 215-58 156-156 57-215z" horiz-adv-x="857.1" />
<glyph glyph-name="angle-circled-up" unicode="&#xe80f;" d="m650 214l57 57q11 11 11 25t-11 26l-253 253q-11 10-25 10t-26-10l-253-254q-10-10-10-25t10-25l57-57q11-10 25-10t25 10l172 172 171-172q11-10 25-10t25 10z m207 136q0-117-57-215t-156-156-215-58-216 58-155 156-58 215 58 215 155 156 216 58 215-58 156-156 57-215z" horiz-adv-x="857.1" />
<glyph glyph-name="angle-circled-down" unicode="&#xe810;" d="m454 125l253 253q11 11 11 26t-11 25l-57 57q-10 10-25 10t-25-10l-171-172-172 172q-10 10-25 10t-25-10l-57-57q-10-11-10-25t10-26l253-253q11-10 26-10t25 10z m403 225q0-117-57-215t-156-156-215-58-216 58-155 156-58 215 58 215 155 156 216 58 215-58 156-156 57-215z" horiz-adv-x="857.1" />
<glyph glyph-name="play" unicode="&#xe811;" d="m772 333l-741-412q-13-7-22-2t-9 20v822q0 14 9 20t22-2l741-412q13-7 13-17t-13-17z" horiz-adv-x="785.7" />
<glyph glyph-name="stop" unicode="&#xe812;" d="m857 743v-786q0-14-10-25t-26-11h-785q-15 0-25 11t-11 25v786q0 14 11 25t25 11h785q15 0 26-11t10-25z" horiz-adv-x="857.1" />
<glyph glyph-name="pause" unicode="&#xe813;" d="m857 743v-786q0-14-10-25t-26-11h-285q-15 0-25 11t-11 25v786q0 14 11 25t25 11h285q15 0 26-11t10-25z m-500 0v-786q0-14-10-25t-26-11h-285q-15 0-25 11t-11 25v786q0 14 11 25t25 11h285q15 0 26-11t10-25z" horiz-adv-x="857.1" />
<glyph glyph-name="to-end" unicode="&#xe814;" d="m25-71q-10-11-18-8t-7 18v822q0 14 7 18t18-8l396-396q5-4 8-11v379q0 14 10 25t25 11h72q14 0 25-11t10-25v-786q0-14-10-25t-25-11h-72q-14 0-25 11t-10 25v379q-3-6-8-11z" horiz-adv-x="571.4" />
<glyph glyph-name="to-end-alt" unicode="&#xe815;" d="m25-71q-10-11-18-8t-7 18v822q0 14 7 18t18-8l396-396q5-4 8-11v397q0 14 7 18t18-8l396-396q4-4 7-11v379q0 14 11 25t25 11h71q15 0 25-11t11-25v-786q0-14-11-25t-25-11h-71q-15 0-25 11t-11 25v379q-3-6-7-11l-396-396q-11-11-18-8t-7 18v397q-3-6-8-11z" horiz-adv-x="1000" />
<glyph glyph-name="to-start" unicode="&#xe816;" d="m546 771q11 11 18 8t7-18v-822q0-14-7-18t-18 8l-396 396q-5 5-7 11v-379q0-14-11-25t-25-11h-71q-15 0-25 11t-11 25v786q0 14 11 25t25 11h71q15 0 25-11t11-25v-379q2 7 7 11z" horiz-adv-x="571.4" />
<glyph glyph-name="align-justify" unicode="&#xe817;" d="m1000 100v-71q0-15-11-25t-25-11h-928q-15 0-25 11t-11 25v71q0 15 11 25t25 11h928q15 0 25-11t11-25z m0 214v-71q0-15-11-25t-25-11h-928q-15 0-25 11t-11 25v71q0 15 11 25t25 11h928q15 0 25-11t11-25z m0 215v-72q0-14-11-25t-25-11h-928q-15 0-25 11t-11 25v72q0 14 11 25t25 10h928q15 0 25-10t11-25z m0 214v-72q0-14-11-25t-25-10h-928q-15 0-25 10t-11 25v72q0 14 11 25t25 11h928q15 0 25-11t11-25z" horiz-adv-x="1000" />
<glyph glyph-name="quote-left" unicode="&#xe818;" d="m429 314v-214q0-45-32-76t-76-31h-214q-44 0-76 31t-31 76v393q0 58 23 111t61 91 91 61 111 23h35q15 0 26-11t10-25v-72q0-14-10-25t-26-10h-35q-59 0-101-42t-42-101v-18q0-22 16-38t37-16h125q45 0 76-31t32-76z m500 0v-214q0-45-32-76t-76-31h-214q-44 0-76 31t-31 76v393q0 58 23 111t61 91 91 61 111 23h35q15 0 26-11t10-25v-72q0-14-10-25t-26-10h-35q-59 0-101-42t-42-101v-18q0-22 15-38t38-16h125q45 0 76-31t32-76z" horiz-adv-x="928.6" />
<glyph glyph-name="quote-right" unicode="&#xe819;" d="m429 671v-392q0-58-23-111t-61-91-91-62-111-22h-36q-14 0-25 10t-11 26v71q0 15 11 25t25 11h36q59 0 101 42t42 101v17q0 23-16 38t-38 16h-125q-44 0-76 31t-31 76v214q0 45 31 76t76 32h214q45 0 76-32t32-76z m500 0v-392q0-58-23-111t-61-91-91-62-111-22h-36q-14 0-25 10t-11 26v71q0 15 11 25t25 11h36q59 0 101 42t42 101v17q0 23-16 38t-38 16h-125q-44 0-76 31t-31 76v214q0 45 31 76t76 32h214q45 0 76-32t32-76z" horiz-adv-x="928.6" />
<glyph glyph-name="mail" unicode="&#xe81a;" d="m929 11v428q-18-20-39-37-149-114-238-188-28-24-46-38t-48-27-57-13h-2q-26 0-57 13t-48 27-46 38q-88 74-238 188-21 17-39 37v-428q0-8 6-13t12-5h822q7 0 12 5t6 13z m0 586v14t-1 7-1 7-3 5-5 4-8 2h-822q-7 0-12-6t-6-12q0-94 82-159 108-85 224-177 4-2 20-16t25-21 25-18 28-15 24-5h2q11 0 24 5t28 15 25 18 25 21 20 16q116 92 224 177 30 24 56 65t26 73z m71 21v-607q0-37-26-63t-63-27h-822q-36 0-63 27t-26 63v607q0 37 26 63t63 26h822q37 0 63-26t26-63z" horiz-adv-x="1000" />
<glyph glyph-name="vkontakte" unicode="&#xe81b;" d="m1070 560q13-36-84-164-13-18-36-48-44-56-50-73-10-23 7-45 10-12 46-46h0l1 0 0-1 1-1q79-73 107-123 2-3 4-7t3-15 0-19-14-15-33-7l-143-3q-13-2-31 3t-29 12l-11 7q-17 12-39 36t-38 43-34 32-32 9q-1 0-4-2t-10-8-12-16-9-29-4-44q0-8-2-15t-4-10l-2-3q-10-11-30-12h-64q-40-3-81 9t-74 29-57 37-40 32l-14 14q-5 5-15 16t-40 51-59 84-68 118-73 152q-4 9-4 15t2 9l2 3q9 11 32 11l153 1q7-1 13-4t9-4l3-2q9-6 13-18 11-28 26-58t23-45l9-16q16-34 31-58t27-38 23-22 19-8 15 3q1 1 3 3t7 12 7 26 5 46 0 69q-1 23-5 41t-7 26l-4 6q-14 19-47 24-8 2 3 14 9 10 21 17 29 14 133 13 46-1 75-7 12-3 19-8t12-13 5-18 2-26 0-30-2-40 0-46q0-6-1-23t0-27 2-22 6-22 13-14q4-1 9-2t15 6 21 19 29 38 38 60q33 58 60 125 2 6 5 10t6 6l2 2 3 1t8 2 11 0l160 1q22 3 36-1t17-10z" horiz-adv-x="1071.4" />
<glyph glyph-name="whatsapp" unicode="&#xe81c;" d="m550 306q7 0 54-24t50-30q1-2 1-8 0-18-9-42-9-22-40-37t-57-15q-32 0-106 35-55 25-95 66t-82 103q-41 60-40 108v5q2 50 41 88 14 12 29 12 4 0 10-1t11-1q11 0 15-3t8-16q5-11 19-49t14-42q0-11-19-32t-20-26q0-3 3-8 19-41 57-76 31-30 84-57 7-4 13-4 8 0 30 27t29 27z m-114-295q71 0 136 28t112 74 75 112 28 136-28 136-75 112-112 75-136 28-135-28-112-75-75-112-28-136q0-113 67-205l-44-130 135 43q88-58 192-58z m0 771q86 0 164-34t134-89 90-135 33-163-33-163-90-134-134-90-164-34q-108 0-203 53l-233-75 76 226q-60 99-60 217 0 85 33 163t90 135 134 89 163 34z" horiz-adv-x="857.1" />
<glyph glyph-name="twitter" unicode="&#xe81d;" d="m904 622q-37-54-90-93 0-8 0-23 0-73-21-145t-64-139-103-117-144-82-181-30q-151 0-276 81 19-3 43-3 126 0 224 77-59 2-105 36t-64 89q19-2 34-2 24 0 48 6-63 13-104 62t-41 115v2q38-21 82-23-37 25-59 64t-22 86q0 49 25 91 68-83 164-133t208-55q-5 21-5 41 0 75 53 127t127 53q79 0 132-57 61 12 114 44-20-64-79-100 52 6 104 28z" horiz-adv-x="928.6" />
<glyph glyph-name="facebook" unicode="&#xe81e;" d="m535 843v-147h-87q-48 0-65-20t-17-60v-106h164l-22-165h-142v-424h-171v424h-142v165h142v122q0 104 58 161t155 57q82 0 127-7z" horiz-adv-x="571.4" />
<glyph glyph-name="youtube" unicode="&#xe81f;" d="m542 156v-118q0-37-22-37-13 0-25 12v168q12 12 25 12 22 0 22-37z m188-1v-25h-50v25q0 38 25 38t25-38z m-539 122h60v52h-174v-52h59v-318h55v318z m161-318h50v276h-50v-211q-17-23-32-23-10 0-11 11-1 2-1 20v203h-50v-218q0-28 5-41 7-21 32-21 27 0 57 34v-30z m240 83v110q0 41-5 55-10 31-40 31-28 0-52-30v121h-50v-370h50v27q25-31 52-31 30 0 40 31 5 15 5 56z m188 6v7h-51q0-29-1-34-4-20-22-20-26 0-26 38v49h100v57q0 44-15 65-22 28-59 28-38 0-60-28-15-21-15-65v-96q0-44 16-65 22-29 60-29 40 0 60 30 10 15 12 30 1 5 1 33z m-339 509v117q0 39-24 39t-24-39v-117q0-39 24-39t24 39z m401-419q0-131-14-195-8-33-33-56t-57-25q-102-12-309-12t-310 12q-32 3-57 25t-32 56q-15 62-15 195 0 131 15 195 7 33 32 56t57 26q103 11 310 11t309-11q33-4 57-26t33-56q14-62 14-195z m-557 712h57l-67-223v-151h-56v151q-8 42-34 119-21 57-37 104h60l39-147z m207-186v-97q0-46-16-66-21-29-59-29-38 0-59 29-15 21-15 66v97q0 45 15 65 21 29 59 29 38 0 59-29 16-20 16-65z m187 91v-279h-51v31q-30-35-58-35-25 0-33 21-4 13-4 42v220h51v-205q0-19 0-20 2-12 12-12 15 0 32 24v213h51z" horiz-adv-x="857.1" />
<glyph glyph-name="medkit" unicode="&#xe820;" d="m714 225v107q0 8-5 13t-13 5h-125v125q0 8-5 13t-12 5h-108q-7 0-12-5t-5-13v-125h-125q-8 0-13-5t-5-13v-107q0-8 5-13t13-5h125v-125q0-8 5-13t12-5h108q7 0 12 5t5 13v125h125q8 0 13 5t5 13z m-357 411h286v71h-286v-71z m-214 0v-715h-18q-51 0-88 37t-37 88v465q0 51 37 88t88 37h18z m661 0v-715h-608v715h90v89q0 22 15 38t38 16h322q22 0 38-16t15-38v-89h90z m196-125v-465q0-51-37-88t-88-37h-18v715h18q51 0 88-37t37-88z" horiz-adv-x="1000" />
<glyph glyph-name="check" unicode="&#xe821;" d="m786 331v-177q0-67-47-114t-114-47h-464q-67 0-114 47t-47 114v464q0 66 47 113t114 48h464q35 0 65-14 9-4 10-13 2-10-5-16l-27-28q-6-5-13-5-2 0-5 1-13 3-25 3h-464q-37 0-63-26t-27-63v-464q0-37 27-63t63-27h464q37 0 63 27t26 63v141q0 8 5 13l36 35q6 6 13 6 3 0 7-2 11-4 11-16z m129 273l-455-454q-13-14-31-14t-32 14l-240 240q-14 13-14 31t14 32l61 62q14 13 32 13t32-13l147-147 361 361q13 13 31 13t32-13l62-61q13-14 13-32t-13-32z" horiz-adv-x="928.6" />
<glyph glyph-name="check-empty" unicode="&#xe822;" d="m625 707h-464q-37 0-63-26t-27-63v-464q0-37 27-63t63-27h464q37 0 63 27t26 63v464q0 37-26 63t-63 26z m161-89v-464q0-67-47-114t-114-47h-464q-67 0-114 47t-47 114v464q0 66 47 113t114 48h464q66 0 114-48t47-113z" horiz-adv-x="785.7" />
<glyph glyph-name="mail-1" unicode="&#xe823;" d="m30 586q-32 18-28 40 2 14 26 14l846 0q38 0 20-32-8-14-24-22-14-6-192-102t-182-98q-16-10-46-10-28 0-46 10-4 2-182 98t-192 102z m850-100q20 10 20-10l0-368q0-16-17-32t-33-16l-800 0q-16 0-33 16t-17 32l0 368q0 20 20 10l384-200q18-10 46-10t46 10z" horiz-adv-x="900" />
<glyph glyph-name="heart" unicode="&#xe824;" d="m790 644q70-64 70-156t-70-158l-360-330-360 330q-70 66-70 158t70 156q62 58 151 58t153-58l56-52 58 52q62 58 150 58t152-58z" horiz-adv-x="860" />
<glyph glyph-name="menu-1" unicode="&#xe825;" d="m650 400q22 0 36-15t14-35-15-35-35-15l-600 0q-20 0-35 15t-15 35 14 35 36 15l600 0z m-600 100q-20 0-35 15t-15 35 14 35 36 15l600 0q22 0 36-15t14-35-15-35-35-15l-600 0z m600-300q22 0 36-15t14-35-15-35-35-15l-600 0q-20 0-35 15t-15 35 14 35 36 15l600 0z" horiz-adv-x="700" />
<glyph glyph-name="check-1" unicode="&#xe826;" d="m249 0q-34 0-56 28l-180 236q-16 24-12 52t26 46 51 14 47-28l118-154 296 474q16 24 43 30t53-8q24-16 30-43t-8-53l-350-560q-20-32-56-32z" horiz-adv-x="667" />
<glyph glyph-name="cancel-1" unicode="&#xe827;" d="m452 194q18-18 18-43t-18-43q-18-16-43-16t-43 16l-132 152-132-152q-18-16-43-16t-43 16q-16 18-16 43t16 43l138 156-138 158q-16 18-16 43t16 43q18 16 43 16t43-16l132-152 132 152q18 16 43 16t43-16q18-18 18-43t-18-43l-138-158z" horiz-adv-x="470" />
<glyph glyph-name="left-open-big" unicode="&#xe828;" d="m452-20q26-26 0-48-26-26-48 0l-392 394q-24 24 0 50l392 394q22 26 48 0 26-22 0-48l-358-372z" horiz-adv-x="465" />
<glyph glyph-name="right-open-big" unicode="&#xe829;" d="m13-20l358 370-358 372q-26 26 0 48 26 26 48 0l392-394q24-26 0-50l-392-394q-22-26-48 0-26 22 0 48z" horiz-adv-x="465" />
<glyph glyph-name="up-open-big" unicode="&#xe82a;" d="m804 130l-372 358-370-358q-26-22-50 0-24 24 0 50l396 390q26 26 48 0l396-390q24-26 0-50-26-22-48 0z" horiz-adv-x="864" />
<glyph glyph-name="down-open-big" unicode="&#xe82b;" d="m63 570l370-356 372 356q22 26 48 0 26-22 0-48l-396-392q-22-22-48 0l-396 392q-26 26 0 48 24 24 50 0z" horiz-adv-x="866" />
<glyph glyph-name="skype" unicode="&#xe82c;" d="m894 250q26-58 26-118 0-108-75-185t-179-77q-62 0-120 32-52-8-80-8-182 0-311 132t-129 320q0 44 10 90-36 60-36 134 0 108 74 184t180 76q74 0 136-40 32 8 76 8 182 0 310-132t128-320q0-46-10-96z m-204-120q30 46 30 100 0 44-16 80-16 30-50 54-36 22-76 36-68 20-96 26-14 2-35 7t-27 7q-24 8-34 14-16 8-26 22-10 10-10 26 0 24 28 42 26 20 76 20t74-18q26-22 38-50 16-26 26-36 16-12 38-12 26 0 46 20 18 18 18 44 0 20-14 52-16 24-42 48-28 22-74 38-48 14-102 14-72 0-128-22-56-20-86-60t-30-92 28-90q34-40 76-56 48-22 116-36 12-2 29-7t30-8 21-5q28-10 46-28 18-14 18-42 0-34-32-56-36-24-90-24-40 0-64 12-26 14-36 28-24 44-26 46-8 24-24 40-20 14-40 14-28 0-46-18t-18-42q0-38 28-82 26-40 72-66 64-34 158-34 78 0 138 24 60 28 88 70z" horiz-adv-x="920" />
<glyph glyph-name="mail-2" unicode="&#xe82d;" d="m0 28v644q0 8 2 18l460-460q39-39 95-39 55 0 94 39l460 460q2-9 2-18v-644q0-37-26-62t-62-26h-937q-36 0-62 26t-26 62z m63 728q13 4 25 4h937q12 0 25-4l-463-463q-13-12-31-12t-30 12z" horiz-adv-x="1113.3" />
<glyph glyph-name="menu-2" unicode="&#xe82e;" d="m68 62q0-30 21-51t51-21h793q30 0 51 21t21 51-21 51-51 21h-793q-29 0-51-21t-21-51z m0 288q0-30 21-51t51-21h793q30 0 51 21t21 51-21 51-51 21h-793q-29 0-51-21t-21-51z m0 288q0-30 21-51t51-21h793q30 0 51 21t21 51-21 51-51 21h-793q-29 0-51-21t-21-51z" horiz-adv-x="1073.2" />
<glyph glyph-name="at" unicode="&#xe82f;" d="m0 340q0 197 130 334 136 144 350 144 175 0 288-98 121-105 121-278 0-135-77-233-76-97-174-97-50 0-78 31-28 31-28 65 0 1 1 4t0 5q0 1 1 5t0 6q-22-45-47-69-46-46-112-46-67 0-111 52-45 52-45 145 0 109 68 203 69 95 166 95 57 0 91-34 25-28 32-62l20 75h104l-71-260q-3-12-7-28t-5-19q-3-14-3-26 0-18 11-34 11-16 35-16 48 0 96 67 48 69 48 179 0 165-131 237-80 45-183 45-188 0-302-125-102-111-102-270 0-176 120-278 107-90 260-90 105 0 195 42 50 22 103 63l13 10q4 3 10 5t14 3 15-4 13-16q6-17 3-29t-8-19l-7-7q-77-66-169-101-92-35-189-35-229 0-355 155-104 128-104 304z m340-41q0-44 18-71 18-27 52-27 59 0 97 97 37 98 37 153 0 32-17 54-17 21-47 21-58 0-99-77-41-77-41-150z" horiz-adv-x="888.7" />
<glyph glyph-name="vk" unicode="&#xe830;" d="m0 654q10 8 25 12 14 4 25 4l9 0q10 0 24-1 22-1 32-1 6 0 38 2 16 1 29 1t23-1q20-2 32-8 6-3 13-13t12-19 11-25 10-22q38-82 94-163 2-3 7-11t9-12 9-12 10-11 11-8 11-6 12 0q28 5 31 117 1 19 1 35 0 74-15 102-6 11-15 18t-25 12-23 10q14 28 50 37t96 9l53 0t26 0 27-3l22-6t20-9 12-14q9-18 11-42 0-7 1-14 0-20-3-52-4-42-4-52-3-23-3-46 0-18 2-38 4-44 30-61 9 1 17 4t15 11 11 12 13 16 10 14q47 62 94 163l9 23t12 26 12 20 15 13q16 7 38 7l9 0q20 0 46-2 32-2 47-2 9 0 28 1t32 2 30-1 25-6 14-13q3-6 3-13 0-29-35-87-17-29-34-52t-46-58-37-47q-2-2-14-18t-17-24-12-22-5-27q0-8 3-15t10-15 10-12 13-13 12-11q71-65 112-117 40-52 40-75 0-33-51-41-26-4-53-4-21 0-43 3-20 2-37 2-26 0-45-5l-6 0q-66 11-139 94-4 4-17 21t-22 25-23 17-27 6q-23-4-30-29t-9-59-10-49q-13-24-79-24-28 0-66 4-78 8-141 40t-101 68-81 92q-104 133-197 322-3 6-11 23t-12 25-9 24-8 28-3 26z" horiz-adv-x="1220" />
<glyph glyph-name="skype-1" unicode="&#xe831;" d="m0 577q0 113 80 193t193 80q78 0 145-42 36 7 80 7 195 0 333-138t138-332q0-49-11-101 28-59 28-121 0-113-80-193t-193-80q-68 0-129 32-45-8-86-8-194 0-332 138t-138 333q0 47 9 94-37 65-37 138z m221-366q0-41 30-85 71-104 246-104 50 0 97 11t87 34 66 64 25 94q0 58-29 98t-74 58-95 33-96 23-73 26-30 44q0 33 37 49t74 16q40 0 66-12t38-30 21-35 25-30 39-13q27 0 48 19t20 46-15 54q-30 55-95 80t-138 25q-46 0-89-9t-83-29-64-56-25-87q0-66 40-106t97-57 115-29 97-33 40-59q0-29-23-49t-50-27-57-7q-38 0-64 11t-39 27-22 35-18 35-23 27-37 10q-28 0-48-17t-21-45z" horiz-adv-x="986" />
<glyph glyph-name="odnoklassniki" unicode="&#xe832;" d="m290 850c-143 0-258-116-258-258 0-142 115-258 258-258 142 0 258 116 258 258 0 142-116 258-258 258z m0-151c59 0 107-48 107-107 0-59-48-107-107-107-59 0-107 48-107 107 0 59 48 107 107 107z m-213-374c-26 0-51-12-65-35-23-36-12-82 23-105 47-29 98-50 150-62l-144-144c-30-30-30-77 0-107 15-15 34-22 53-22 20 0 39 7 54 22l142 142 141-142c30-29 78-29 107 0 30 30 30 78 0 107l-144 144c53 12 103 33 150 62 35 23 46 69 24 105-23 35-69 46-105 23-105-66-241-66-347 0-12 8-26 12-39 12z" horiz-adv-x="579" />
<glyph glyph-name="down" unicode="&#xe833;" d="m0 436l211 0 0 414 359 0 0-414 211 0-390-586z" horiz-adv-x="781" />
<glyph glyph-name="up" unicode="&#xe834;" d="m0 264l391 586 390-586-211 0 0-414-359 0 0 414-211 0z" horiz-adv-x="781" />
<glyph glyph-name="right" unicode="&#xe835;" d="m0 170l0 360 414 0 0 211 586-391-586-391 0 211-414 0z" horiz-adv-x="1000" />
<glyph glyph-name="left" unicode="&#xe836;" d="m0 350l586 391 0-211 414 0 0-360-414 0 0-211z" horiz-adv-x="1000" />
<glyph glyph-name="down-dir" unicode="&#xe837;" d="m571 457q0-14-10-25l-250-250q-11-11-25-11t-25 11l-250 250q-11 11-11 25t11 25 25 11h500q14 0 25-11t10-25z" horiz-adv-x="571.4" />
<glyph glyph-name="up-dir" unicode="&#xe838;" d="m571 171q0-14-10-25t-25-10h-500q-15 0-25 10t-11 25 11 26l250 250q10 10 25 10t25-10l250-250q10-11 10-26z" horiz-adv-x="571.4" />
<glyph glyph-name="right-dir" unicode="&#xe839;" d="m321 350q0-14-10-25l-250-250q-11-11-25-11t-25 11-11 25v500q0 15 11 25t25 11 25-11l250-250q10-10 10-25z" horiz-adv-x="357.1" />
<glyph glyph-name="left-dir" unicode="&#xe83a;" d="m357 600v-500q0-14-10-25t-26-11-25 11l-250 250q-10 11-10 25t10 25l250 250q11 11 25 11t26-11 10-25z" horiz-adv-x="357.1" />
<glyph glyph-name="angle-down" unicode="&#xe83b;" d="m600 439q0-7-6-13l-260-260q-5-5-13-5t-12 5l-260 260q-6 6-6 13t6 13l27 28q6 6 13 6t13-6l219-219 220 219q5 6 13 6t12-6l28-28q6-5 6-13z" horiz-adv-x="642.9" />
<glyph glyph-name="angle-up" unicode="&#xe83c;" d="m600 189q0-7-6-13l-28-27q-5-6-12-6t-13 6l-220 219-219-219q-5-6-13-6t-13 6l-27 27q-6 6-6 13t6 13l260 260q5 6 12 6t13-6l260-260q6-5 6-13z" horiz-adv-x="642.9" />
<glyph glyph-name="angle-right" unicode="&#xe83d;" d="m332 314q0-7-6-13l-260-260q-5-5-12-5t-13 5l-28 28q-6 6-6 13t6 13l219 219-219 220q-6 5-6 12t6 13l28 28q5 6 13 6t12-6l260-260q6-5 6-13z" horiz-adv-x="357.1" />
<glyph glyph-name="angle-left" unicode="&#xe83e;" d="m350 546q0-7-6-12l-219-220 219-219q6-6 6-13t-6-13l-28-28q-5-5-12-5t-13 5l-260 260q-6 6-6 13t6 13l260 260q5 6 13 6t12-6l28-28q6-5 6-13z" horiz-adv-x="357.1" />
<glyph glyph-name="gplus" unicode="&#xe83f;" d="m410 406q0-20 18-40t43-37 51-41 43-59 18-79q0-50-27-96-40-68-118-101t-166-32q-74 0-138 24t-95 76q-21 34-21 73 0 46 25 84t66 64q73 46 225 56-18 24-26 41t-9 41q0 20 12 48-26-3-38-3-83 0-139 54t-57 137q0 45 20 88t55 73q43 37 102 55t122 18h233l-77-49h-73q41-35 62-74t21-90q0-40-13-72t-33-52-39-36-33-34-14-37z m-81 53q21 0 43 10t37 24q30 32 30 89 0 32-10 69t-27 73-47 57-65 23q-24 0-46-11t-37-29q-26-33-26-89 0-26 5-55t18-57 29-52 42-37 54-15z m1-487q32 0 62 7t55 22 41 41 15 61q0 14-4 27t-8 24-15 23-16 19-22 20-20 16-23 16-21 15q-8 1-26 1-30 0-59-4t-60-14-54-25-38-42-15-59q0-39 19-69t51-46 67-25 71-8z m452 489h119v-60h-119v-122h-59v122h-118v60h118v121h59v-121z" horiz-adv-x="928.6" />
<glyph glyph-name="plus-circled" unicode="&#xe840;" d="m420 770q174 0 297-123t123-297-123-297-297-123-297 123-123 297 123 297 297 123z m52-470l200 0 0 102-200 0 0 202-102 0 0-202-202 0 0-102 202 0 0-202 102 0 0 202z" horiz-adv-x="840" />
<glyph glyph-name="minus-circled" unicode="&#xe841;" d="m420 770q174 0 297-123t123-297-123-297-297-123-297 123-123 297 123 297 297 123z m252-368l-504 0 0-102 504 0 0 102z" horiz-adv-x="840" />
<glyph glyph-name="minus" unicode="&#xe842;" d="m550 400q30 0 30-50t-30-50l-520 0q-30 0-30 50t30 50l520 0z" horiz-adv-x="580" />
<glyph glyph-name="plus" unicode="&#xe843;" d="m550 400q30 0 30-50t-30-50l-210 0 0-210q0-30-50-30t-50 30l0 210-210 0q-30 0-30 50t30 50l210 0 0 210q0 30 50 30t50-30l0-210 210 0z" horiz-adv-x="580" />
<glyph glyph-name="info" unicode="&#xe844;" d="m352 850q48 0 74-27t26-69q0-50-39-88t-95-38q-48 0-74 26t-24 72q0 46 35 85t97 39z m-206-1000q-100 0-54 178l60 254q14 56 0 56-12 0-54-18t-72-38l-26 44q90 78 189 126t151 48q78 0 36-162l-70-266q-16-64 6-64 44 0 118 60l30-40q-84-86-175-132t-139-46z" horiz-adv-x="460" />
<glyph glyph-name="info-circled" unicode="&#xe845;" d="m454 810q190 2 326-130t140-322q2-190-131-327t-323-141q-190-2-327 131t-139 323q-4 190 130 327t324 139z m52-152q-42 0-65-24t-23-50q-2-28 15-44t49-16q38 0 61 22t23 54q0 58-60 58z m-120-594q30 0 84 26t106 78l-18 24q-48-36-72-36-14 0-4 38l42 160q26 96-22 96-30 0-89-29t-115-75l16-26q52 34 74 34 12 0 0-34l-36-152q-26-104 34-104z" horiz-adv-x="920" />
<glyph glyph-name="attach" unicode="&#xe846;" d="m244-140q-102 0-170 72-72 70-74 166t84 190l496 496q80 80 174 54 44-12 79-47t47-79q26-96-54-176l-474-474q-40-40-88-46-48-4-80 28-30 24-27 74t47 92l332 334q24 26 50 0t0-50l-332-332q-44-44-20-70 12-8 24-6 24 4 46 26l474 474q50 50 34 108-16 60-76 76-54 14-108-36l-494-494q-66-76-64-143t52-117q50-48 117-50t141 62l496 494q24 24 50 0 26-22 0-48l-496-496q-82-82-186-82z" horiz-adv-x="939" />
<glyph glyph-name="bookmark" unicode="&#xe847;" d="m310 800q22 0 36-15t14-35l0-850-180 180-180-180 0 850q0 50 40 50l270 0z" horiz-adv-x="360" />
<glyph glyph-name="thumbs-up" unicode="&#xe848;" d="m582 480q2-6 58-13t108-24 52-47q0-72-61-284t-107-212q-144 0-288 42t-144 88l0 342q0 14 15 34t46 45 53 41 62 43 46 31q50 34 104 100t85 104 41 26q48-76 29-137t-59-119-40-60z m-432-4q14 0 0-14-50-50-50-104l0-318q0-50 52-104 10-10-2-10-26 0-55 8t-62 45-33 99l0 242q0 62 33 100t63 47 54 9z" horiz-adv-x="800" />
<glyph glyph-name="thumbs-down" unicode="&#xe849;" d="m218 218q-2 6-57 13t-108 24-53 47q0 72 62 285t106 213q144 0 288-43t144-89l0-342q0-10-8-24t-25-30-32-29-42-32-41-29-41-28l-33-22q-50-34-104-100t-85-104-41-26q-48 76-29 137t59 119 40 60z m432 4q-12 0 2 14 48 50 48 104l0 318q0 50-52 104-10 10 2 10 26 0 55-8t62-45 33-99l0-242q0-48-18-81t-45-48-48-21-39-6z" horiz-adv-x="800" />
<glyph glyph-name="reply" unicode="&#xe84a;" d="m900 10q-86 152-208 197t-330 45l0-218-362 334 362 322 0-192q90 0 168-27t131-70 96-95 69-104 44-95 24-69z" horiz-adv-x="900" />
<glyph glyph-name="forward" unicode="&#xe84b;" d="m540 252q-210 0-332-45t-208-197q4 20 13 53t50 117 96 148 156 117 225 53l0 192 360-322-360-334 0 218z" horiz-adv-x="900" />
<glyph glyph-name="quote" unicode="&#xe84c;" d="m146 680q146 0 184-146 38-140-40-302-80-168-224-204-32-8-66-8l0 70q112 0 182 108 54 86 26 146-16 36-62 36-60 0-103 44t-43 106 43 106 103 44z m420 0q146 0 184-146 38-140-40-302-80-168-224-204-32-8-66-8l0 70q112 0 182 108 54 86 26 146-16 36-62 36-60 0-103 44t-43 106 43 106 103 44z" horiz-adv-x="762" />
<glyph glyph-name="print" unicode="&#xe84d;" d="m66 526q-26 0-22 22 4 10 12 14 2 0 49 17t93 32 58 15l44 0 0 150 380 0 0-150 46 0q12 0 57-15t92-32 49-17q18-8 12-26-4-10-20-10l-850 0z m860-56q20 0 37-19t17-41l0-174q0-22-17-41t-37-19l-100 0 44-250-760 0 44 250-98 0q-20 0-38 19t-18 41l0 174q0 22 18 41t38 19l870 0z m-716-444l560 0-70 324-420 0z" horiz-adv-x="980" />
<glyph glyph-name="search-1" unicode="&#xe84e;" d="m680 256c-55-55-126-83-197-83-65 0-129 23-182 66l-51-125-130-130c-14-10-29-15-45-15-41 0-75 37-75 77 0 16 5 32 15 45l129 130 126 51c-44 52-66 117-66 182 0 152 127 277 279 277 150 0 277-128 277-278 0-72-26-144-80-197z m-319 75c34-33 78-50 122-50 92 0 170 77 170 172 0 93-79 170-170 170-94 0-172-79-172-170 0-45 17-89 50-122z" horiz-adv-x="760" />
<glyph glyph-name="cancel-2" unicode="&#xe84f;" d="m654 349l346-346-154-154-346 346-346-346-154 154 346 346-346 346 154 154 346-346 346 346 154-154z" horiz-adv-x="1000" />
<glyph glyph-name="location" unicode="&#xe850;" d="m429 493q0 59-42 101t-101 42-101-42-42-101 42-101 101-42 101 42 42 101z m142 0q0-61-18-100l-203-432q-9-18-27-29t-37-11-38 11-26 29l-204 432q-18 39-18 100 0 118 84 202t202 84 202-84 83-202z" horiz-adv-x="571.4" />
<glyph glyph-name="angle-double-up" unicode="&#xe851;" d="m600 118q0-7-6-13l-28-28q-5-5-12-5t-13 5l-220 219-219-219q-5-5-13-5t-13 5l-27 28q-6 6-6 13t6 13l260 260q5 5 12 5t13-5l260-260q6-6 6-13z m0 214q0-7-6-13l-28-28q-5-5-12-5t-13 5l-220 220-219-220q-5-5-13-5t-13 5l-27 28q-6 6-6 13t6 13l260 260q5 6 12 6t13-6l260-260q6-6 6-13z" horiz-adv-x="642.9" />
<glyph glyph-name="angle-double-down" unicode="&#xe852;" d="m600 368q0-7-6-13l-260-260q-5-6-13-6t-12 6l-260 260q-6 6-6 13t6 13l27 28q6 5 13 5t13-5l219-220 220 220q5 5 13 5t12-5l28-28q6-6 6-13z m0 214q0-7-6-13l-260-260q-5-5-13-5t-12 5l-260 260q-6 6-6 13t6 13l27 28q6 5 13 5t13-5l219-220 220 220q5 5 13 5t12-5l28-28q6-6 6-13z" horiz-adv-x="642.9" />
<glyph glyph-name="skype-2" unicode="&#xe853;" d="m655 257q0 28-11 51t-27 38-41 27-46 19-49 13l-58 14q-17 4-25 6t-19 6-17 9-9 12-4 16q0 43 80 43 24 0 43-6t30-16 21-19 23-16 27-7q26 0 42 18t16 43q0 31-32 55t-79 38-101 13q-38 0-74-9t-67-26-49-48-19-72q0-34 10-60t32-42 44-27 58-18l81-20q51-12 63-20 18-11 18-34 0-21-23-36t-58-14q-29 0-51 9t-37 22-25 25-26 21-30 9q-28 0-42-17t-14-41q0-52 68-88t162-37q41 0 78 10t69 30 49 52 19 74z m202-121q0-89-63-152t-151-63q-73 0-131 45-43-9-83-9-80 0-153 31t-126 84-83 125-31 153q0 41 9 84-45 58-45 130 0 89 63 152t151 63q73 0 131-45 43 9 84 9 79 0 152-31t126-84 83-125 31-153q0-41-9-84 45-58 45-130z" horiz-adv-x="857.1" />
<glyph glyph-name="twitter-1" unicode="&#xe854;" d="m920 636q-36-54-94-98l0-24q0-130-60-250t-186-203-290-83q-160 0-290 84 14-2 46-2 132 0 234 80-62 2-110 38t-66 94q10-4 34-4 26 0 50 6-66 14-108 66t-42 120l0 2q36-20 84-24-84 58-84 158 0 48 26 94 154-188 390-196-6 18-6 42 0 78 55 133t135 55q82 0 136-58 60 12 120 44-20-66-82-104 56 8 108 30z" horiz-adv-x="920" />
<glyph glyph-name="facebook-1" unicode="&#xe855;" d="m500 644l-142 0q-14 0-25-15t-11-37l0-102 178 0 0-148-178 0 0-442-170 0 0 442-152 0 0 148 152 0 0 86q0 94 59 159t147 65l142 0 0-156z" horiz-adv-x="500" />
<glyph glyph-name="left-open-1" unicode="&#xe856;" d="m0 353l391 391q18 18 43 18 24 0 43-18 18-18 18-44t-18-43l-304-304 304-305q18-17 18-43t-18-43q-18-18-43-18t-43 18z" horiz-adv-x="495.1" />
<glyph glyph-name="right-open-1" unicode="&#xe857;" d="m0 0q0 25 18 43l305 304-305 304q-18 18-18 44t18 43 44 18 43-18l390-391-390-391q-19-18-43-18t-44 18q-18 18-18 44z" horiz-adv-x="495.1" />
<glyph glyph-name="youtube-1" unicode="&#xe858;" d="m0 123q0 54 6 162 4 53 38 87t87 36q100 5 301 5t301-5q53-3 87-36t38-87q5-90 5-162t-5-162q-4-53-38-87t-87-36q-100-5-301-5t-301 5q-53 3-87 36t-38 87q-6 108-6 162z m67 141l61 0 0-326 59 0 0 326 61 0 0 55-181 0 0-55z m65 603l60 0 38-152 4 0 36 152 60 0-46-148q-23-73-23-75l0-158-59 0 0 151q-2 14-5 26t-9 26-9 25z m116-885q0-48 36-48 32 0 61 35l0-31 52 0 0 281-52 0 0-214q-21-21-31-21-14 0-14 19l0 216-52 0 0-237z m79 575l0 146q0 34 22 53t56 18q33 0 54-20t20-53l0-145q0-36-20-56t-56-21q-35 0-55 22t-21 56z m54-7q0-23 22-23 23 0 23 25l0 153q0 9-7 15t-16 6-15-5-7-15l0-156z m67-612l53 0 0 21q20-25 50-25 47 0 47 62l0 156q0 71-51 71-25 0-46-27l0 123-53 0 0-381z m53 53l0 176q11 11 22 11 22 0 22-28l0-148q0-24-19-24-14 0-25 13z m23 539l0 237 52 0 0-215q0-19 14-19 13 0 31 21l0 213 52 0 0-281-52 0 0 31q-29-35-61-35-36 0-36 48z m114-513q0-38 19-63t57-24q78 0 78 87l0 21-54 0q0-2 1-13t-1-17-2-14-7-12-14-3q-23 0-23 40l0 53 100 0 0 72q0 38-18 60t-57 22q-36 0-57-23t-22-59l0-127z m54 99l0 30q0 31 23 31t23-31l0-30-46 0z" horiz-adv-x="863" />
<glyph glyph-name="email" unicode="&#xe859;" d="m0 62l0 576q0 1 3 19l339-290-338-325q-4 14-4 20z m45 635q7 3 17 3l913 0q9 0 18-3l-340-291-45-36-89-73-89 73-45 36z m1-694l341 327 132-107 132 107 341-327q-8-3-17-3l-913 0q-8 0-16 3z m650 364l338 290q3-9 3-19l0-576q0-9-3-20z" horiz-adv-x="1037" />
<glyph glyph-name="twitter-bird" unicode="&#xe85a;" d="m1003 349q-41-46-114-46h-6q-37-152-177-244t-305-92q-121 0-225 53t-176 151q75-72 181-72 113 0 191 83-6-1-12-1l-36 8q-24 12-24 35 0 27 41 45-10-1-19-1-29 0-54 12-33 16-51 51 22 25 69 28-98 24-112 102 27 8 53 8h8q-37 20-62 52t-24 69l1 8q155-59 257-116 30-17 76-63 32 87 68 151t89 98q-1-16-15-31 33 32 78 38-3-23-53-41 7 2 26 10t33 11 25 4q15 0 15-11 0-8-16-16t-43-15-28-9q10 1 19 1 69 0 123-52 60-60 76-143 18-6 36-6 50 0 83 19-13-30-43-47t-67-19q34-15 83-15 16 0 31 3z" horiz-adv-x="1003" />
<glyph glyph-name="star-empty" unicode="&#xe85b;" d="m634 290l171 165-235 35-106 213-105-213-236-35 171-165-41-235 211 111 211-111z m295 199q0-12-15-27l-203-197 48-279q1-4 1-12 0-28-23-28-10 0-22 7l-251 132-250-132q-13-7-23-7-11 0-17 9t-6 19q0 4 1 12l48 279-203 197q-14 15-14 27 0 21 31 26l280 40 126 254q11 23 27 23t28-23l125-254 280-40q32-5 32-26z" horiz-adv-x="928.6" />
<glyph glyph-name="star" unicode="&#xe85c;" d="m929 489q0-12-15-27l-203-197 48-279q1-4 1-12 0-11-6-19t-17-9q-10 0-22 7l-251 132-250-132q-13-7-23-7-11 0-17 9t-6 19q0 4 1 12l48 279-203 197q-14 15-14 27 0 21 31 26l280 40 126 254q11 23 27 23t28-23l125-254 280-40q32-5 32-26z" horiz-adv-x="928.6" />
<glyph glyph-name="star-half-alt" unicode="&#xe85d;" d="m662 316l143 139-198 29-37 6-17 34-89 179v-537l33-17 178-94-34 198-7 37z m252 146l-202-197 47-279q3-19-3-29t-19-11q-9 0-22 7l-251 132-250-132q-13-7-23-7-12 0-19 11t-3 29l48 279-203 197q-18 18-13 33t30 20l280 40 126 254q11 23 27 23 16 0 28-23l125-254 280-40q25-4 30-20t-13-33z" horiz-adv-x="928.6" />
<glyph glyph-name="comment" unicode="&#xe85e;" d="m1000 350q0-97-67-179t-182-130-251-48q-39 0-81 4-110-97-257-135-27-8-63-12-10-1-17 5t-10 16v1q-2 2 0 6t1 6 2 5l4 5t4 5 4 5q4 5 17 19t20 22 17 22 18 28 15 33 15 42q-88 50-138 123t-51 157q0 73 40 139t106 114 160 76 194 28q136 0 251-48t182-130 67-179z" horiz-adv-x="1000" />
<glyph glyph-name="search-2" unicode="&#xe85f;" d="m772 78q30-34 6-62l-46-46q-36-32-68 0l-190 190q-74-42-156-42-128 0-223 95t-95 223 90 219 218 91 224-95 96-223q0-88-46-162z m-678 358q0-88 68-156t156-68 151 63 63 153q0 88-68 155t-156 67-151-63-63-151z" horiz-adv-x="789" />
<glyph glyph-name="eye" unicode="&#xe860;" d="m500 630q92 0 177-25t141-62 99-77 63-71 20-45-20-44-63-71-99-78-141-62-177-25-177 25-141 62-99 78-63 71-20 44 20 45 63 71 99 77 141 62 177 25z m0-494q92 0 157 63t65 151q0 90-65 153t-157 63-157-63-65-153q0-88 65-151t157-63z m0 214q8-8 37-2t50 11 25-9q0-44-33-75t-79-31-78 31-32 75q0 46 32 77t78 31q14 0 10-23t-12-47 2-38z" horiz-adv-x="1000" />
<glyph glyph-name="clock" unicode="&#xe861;" d="m460 810q190 0 325-135t135-325-135-325-325-135-325 135-135 325 135 325 325 135z m0-820q150 0 255 106t105 254q0 150-105 255t-255 105q-148 0-254-105t-106-255q0-148 106-254t254-106z m36 620l0-244 150-150-50-50-170 170 0 274 70 0z" horiz-adv-x="920" />
<glyph glyph-name="clock-1" unicode="&#xe862;" d="m0 350q0 95 37 182t100 149 150 100 182 37 182-37 149-100 100-149 37-182-37-182-100-150-149-100-182-37-182 37-150 100-100 150-37 182z m117 0q0-96 47-177t128-128 177-47q95 0 176 47t128 128 47 177q0 95-47 176t-128 128-176 47q-72 0-137-28t-112-75-75-112-28-136z m293 0v224q0 24 17 41t42 18 41-18 17-41v-200l142-141q17-17 17-42t-17-41-41-17q-25 0-42 17l-159 158q-1 2-4 5t-3 4q-1 2-2 4l-2 3t-1 4q-1 0-2 5-2 5-2 5-1 6-1 12z" horiz-adv-x="937.5" />
<glyph glyph-name="gplus-1" unicode="&#xe863;" d="m0 32q0 87 89 155t215 68l54 0q-42 40-42 86 0 29 16 58-10-1-29-1-104 0-170 65t-66 160q0 91 82 159t187 68l310 0-69-50-98 0q47-18 74-68t26-111q0-93-88-162-37-29-48-46t-11-42q0-19 27-48t54-49q61-43 85-88t23-113q0-90-82-157t-222-66q-133 0-225 50t-92 132z m112 33q0-69 59-118t145-48q119 0 173 44t53 117q0 19-4 32-3 11-7 21t-12 19-14 16-19 16-21 15-25 18-26 17q-39 12-77 12-90 1-157-47t-68-114z m66 559q11-79 61-136t109-58q59-2 94 52t25 133-59 134-110 57-95-51-25-131z m555-24l0 50 200 0 0 200 50 0 0-200 201 0 0-50-201 0 0-201-50 0 0 201-200 0z" horiz-adv-x="1184" />
<glyph glyph-name="vkontakte-rect" unicode="&#xe864;" d="m196 850c-108 0-196-88-196-196l0-608c0-108 88-196 196-196l608 0c108 0 196 88 196 196l0 608c0 108-88 196-196 196l-608 0z m112-226l197 0c41 0 73-1 94-4 21-4 41-10 59-20 20-11 35-25 45-43 10-18 15-39 15-63 0-27-7-51-21-72-13-22-32-37-56-47l0-3c34-8 62-22 83-45 21-22 31-52 31-90 0-28-5-52-16-73-10-21-24-39-42-53-21-16-44-28-70-35-25-7-56-10-95-10l-224 0 0 558z m140-102l0-118 17 0c24 0 41 0 51 0 9 1 19 3 30 8 11 5 19 13 23 22 4 9 6 20 6 32 0 9-2 19-7 28-4 10-11 16-21 21-10 4-20 6-33 6-13 1-32 1-57 1l-9 0z m0-214l0-140 7 0c37 0 62 0 76 1 14 0 28 4 43 10 13 6 22 14 28 24 6 11 8 23 8 36 0 18-3 31-10 41-7 10-18 17-32 22-8 3-20 5-35 6-14 0-34 0-59 0l-26 0z" horiz-adv-x="1000" />
<glyph glyph-name="user" unicode="&#xe865;" d="m786 66q0-67-41-106t-108-39h-488q-67 0-108 39t-41 106q0 30 2 58t8 61 15 60 24 55 34 45 48 30 62 11q5 0 24-12t41-27 60-27 75-12 74 12 61 27 41 27 24 12q34 0 62-11t48-30 34-45 24-55 15-60 8-61 2-58z m-179 498q0-88-63-151t-151-63-152 63-62 151 62 152 152 63 151-63 63-152z" horiz-adv-x="785.7" />
<glyph glyph-name="link-ext" unicode="&#xe866;" d="m786 332v-178q0-67-47-114t-114-47h-464q-67 0-114 47t-47 114v464q0 66 47 113t114 48h393q7 0 12-5t5-13v-36q0-8-5-13t-12-5h-393q-37 0-63-26t-27-63v-464q0-37 27-63t63-27h464q37 0 63 27t26 63v178q0 8 5 13t13 5h36q8 0 13-5t5-13z m214 482v-285q0-15-11-26t-25-10-25 10l-98 99-364-364q-5-6-13-6t-13 6l-63 63q-6 6-6 13t6 13l364 364-99 98q-10 11-10 25t10 25 26 11h285q15 0 25-11t11-25z" horiz-adv-x="1000" />
<glyph glyph-name="info-1" unicode="&#xe867;" d="m357 100v-71q0-15-10-25t-26-11h-285q-15 0-25 11t-11 25v71q0 15 11 25t25 11h35v214h-35q-15 0-25 11t-11 25v71q0 15 11 25t25 11h214q15 0 25-11t11-25v-321h35q15 0 26-11t10-25z m-71 643v-107q0-15-11-25t-25-11h-143q-14 0-25 11t-11 25v107q0 14 11 25t25 11h143q15 0 25-11t11-25z" horiz-adv-x="357.1" />
<glyph glyph-name="headphones" unicode="&#xe868;" d="m929 356q0-93-34-176l-11-27-103-18q-13-47-51-77t-87-29v-18q0-8-5-13t-13-5h-36q-8 0-13 5t-5 13v321q0 8 5 13t13 5h36q8 0 13-5t5-13v-18q39 0 72-20t52-53l38 7q16 53 16 108 0 82-49 155t-132 117-176 43-176-43-132-117-49-156q0-54 16-107l38-7q19 34 52 53t73 20v18q0 8 5 13t13 5h35q8 0 13-5t5-13v-321q0-8-5-13t-13-5h-35q-8 0-13 5t-5 13v18q-49 0-88 29t-50 77l-103 18-11 27q-34 83-34 175 0 85 37 163t100 135 149 91 178 34 179-34 148-91 100-135 38-163z" horiz-adv-x="928.6" />
<glyph glyph-name="rouble" unicode="&#xe869;" d="m582 535q0 56-36 90t-96 35h-178v-250h178q60 0 96 34t36 91z m132 0q0-108-70-176t-182-68h-190v-66h282q7 0 12-5t5-13v-71q0-8-5-13t-12-5h-282v-107q0-8-6-13t-12-5h-93q-8 0-13 5t-5 13v107h-125q-8 0-13 5t-5 13v71q0 8 5 13t13 5h125v66h-125q-8 0-13 5t-5 13v83q0 7 5 12t13 6h125v351q0 8 5 13t13 5h301q111 0 182-69t70-175z" horiz-adv-x="714.3" />
<glyph glyph-name="user-1" unicode="&#xe86a;" d="m736 128q204-72 204-122l0-106-940 0 0 106q0 50 204 122 94 34 128 69t34 95q0 22-22 49t-32 73q-2 12-9 18t-14 8-14 17-9 43q0 16 5 26t9 12l4 4q-8 50-12 88-4 54 41 112t157 58 158-58 40-112l-12-88q18-8 18-42-2-28-9-43t-14-17-14-8-9-18q-8-48-31-74t-23-48q0-60 35-95t127-69z" horiz-adv-x="940" />
<glyph glyph-name="user-2" unicode="&#xe86b;" d="m897-41l-895 0s-4 11 0 71c51 27 292 92 306 98l1 45 19 5s7 70 7 81c0 0-28 56-35 89 0 0-23 0-26 24-4 25 0 41-6 60-4 17 10 36 21 32 0 0-25 129 0 164 18 25 71 89 198 111 0 0 31 4 41-1 7-3 6-5-9-21 0 0 65-40 86-104 13-40 8-126 0-149 0 0 19 4 17-20-4-39-5-110-33-96 0 0-1-80-25-96 0 0-7-63 4-65l16 0s6-52 19-65c0 0 267-69 294-99 1-33 0-64 0-64z" horiz-adv-x="897" />
<glyph glyph-name="user-3" unicode="&#xe86c;" d="m0-119q0 9 1 23t11 47 27 49q17 17 68 38t115 43 93 38q38 19 59 56t20 76q0 27-32 63-33 38-53 102t-20 149q0 64 18 113t49 80 71 45 85 15 85-15 71-45 49-80 18-113q0-84-20-149t-52-102q-33-37-33-63 0-39 21-76t59-56q29-15 93-38t114-43 68-38q17-17 27-47t11-51l1-21h-1024z" horiz-adv-x="1024.9" />
<glyph glyph-name="user-male" unicode="&#xe86d;" d="m0-119q0 9 1 23t11 44 26 48q17 17 65 37t108 42 90 36q36 18 55 54t20 73q0 27-31 62-18 21-31 59-44 18-44 72 0 41 15 59-4 27-9 80-1 8-2 21t2 44 15 53q19 33 47 45t47 5q1 0 1 0 1 5 4 13t14 22 25 20q8 4 25 6t43 1 52-8 54-21 49-38 35-59 15-84q0-10 0-20-4-45-9-80 14-18 14-59 0-54-44-72-13-38-31-59-31-35-31-62 0-38 20-73t55-54q29-15 90-36t109-42 64-37q18-17 27-45t10-50l1-20h-977z" horiz-adv-x="977.5" />
<glyph glyph-name="chat" unicode="&#xe86e;" d="m1179 385q0-126-79-233t-215-170-296-62q-122 0-234 39l2-3-357-107q44 59 71 126t31 106l4 38q-106 120-106 266 0 126 79 233t215 169 295 62 296-62 215-169 79-233z m-250 0q0 29-21 50t-51 21q-29 0-50-21t-21-50q0-30 21-51t50-21q30 0 51 21t21 51z m-250 0q0 29-21 50t-51 21q-29 0-50-21t-21-50q0-30 21-51t50-21q30 0 51 21t21 51z m-250 0q0 29-21 50t-51 21q-29 0-50-21t-21-50q0-30 21-51t50-21q30 0 51 21t21 51z" horiz-adv-x="1179" />
<glyph glyph-name="attention" unicode="&#xe86f;" d="m957-24q10-16 0-34-10-16-30-16l-892 0q-18 0-28 16-13 18-2 34l446 782q8 18 30 18t30-18z m-420 50l0 100-110 0 0-100 110 0z m0 174l0 300-110 0 0-300 110 0z" horiz-adv-x="962" />
<glyph glyph-name="location-1" unicode="&#xe870;" d="m495 715q81-81 81-197t-82-197q-8-9-21-23t-47-59-60-92-48-113-22-131q0 63-20 130t-49 115-58 90-49 62l-20 21q-82 81-82 197t82 197 197 82 198-82z m-199-308q47 0 80 33t33 78-33 79-80 33q-45 0-77-33t-33-79 33-78 77-33z" horiz-adv-x="594" />
<glyph glyph-name="location-inv" unicode="&#xe871;" d="m464 519q0 68-49 117t-119 49-117-49-49-117q0-70 49-119 61-61 117-151 54 86 120 152 48 48 48 118z m-168 278q117 0 199-82t81-197-82-197q-8-9-21-23t-47-59-60-92-48-113-22-131q0 63-20 130t-49 115-58 90-49 62l-20 21q-82 81-82 197t82 197 196 82z m57-278q0-24-17-41t-40-16q-25 0-40 16t-15 41 15 39 40 16q24 0 41-17t16-38z" horiz-adv-x="594" />
<glyph glyph-name="location-alt" unicode="&#xe872;" d="m242 797q92 0 157-66t65-157q0-55-55-223t-111-308l-57-140q-25 61-62 156t-99 277-62 238q0 92 66 157t158 66z m0-335q45 0 78 33t33 78-33 79-78 33-79-33-33-79 33-78 79-33z" horiz-adv-x="482" />
<glyph glyph-name="attention-1" unicode="&#xe873;" d="m905 77c8-14 11-30 11-45 0-53-41-91-90-91l-735 0c-48 0-91 40-91 91 0 15 4 31 13 45l368 637c15 28 44 45 78 45 32 0 61-17 77-45z m-512 472l0-299 133 0 0 299-133 0z m67-369c-42 0-75-32-75-76 0-41 33-74 75-74s75 33 75 74c0 43-32 76-75 76z" horiz-adv-x="916" />
<glyph glyph-name="question" unicode="&#xe874;" d="m405 618c-105 0-160-58-160-163l130 0c0 39 9 58 29 58 19 0 27-19 27-58 0-48-23-66-70-66-3 0-11 0-20 1l0-122 130 0 0 51c64 16 97 63 97 136 0 97-69 163-163 163z m1-405c-41 0-76-35-76-78 0-41 35-77 76-77s77 36 77 77-35 78-77 78z m0 544c224 0 407-182 407-407 0-223-183-406-407-406-225 0-406 183-406 406 0 225 181 407 406 407z" horiz-adv-x="813" />
<glyph glyph-name="location-2" unicode="&#xe875;" d="m540 506c0-104-80-205-132-282-113-161-129-297-129-297-3-12-13-12-15 0 0 0-21 136-131 297-92 128-133 178-133 282 0 148 119 267 269 267 149 0 271-119 271-267z m-269-112c59 0 104 49 104 107s-45 102-104 102c-55 0-101-45-101-102s46-107 101-107z" horiz-adv-x="540" />
<glyph glyph-name="info-2" unicode="&#xe876;" d="m469 78l0 349-121 0 0-349 121 0z m-61 410c40 0 71 31 71 72 0 39-31 70-71 70s-72-31-72-70c0-40 32-72 72-72z m-2 269c224 0 407-182 407-407 0-223-183-406-407-406-225 0-406 183-406 406 0 225 181 407 406 407z" horiz-adv-x="813" />
</font>
</defs>
</svg>